\relax 
\@writefile{toc}{\contentsline {paragraph}{Oracle APEX}{1}\protected@file@percent }
\@writefile{toc}{\contentsline {section}{\numberline {1}Jenis aplikasi apa yang cocok untuk apex oracle?}{1}\protected@file@percent }
\@writefile{toc}{\contentsline {section}{\numberline {2}Penggantian Spreadsheet}{1}\protected@file@percent }
\@writefile{toc}{\contentsline {subsection}{\numberline {2.1}Fitur}{1}\protected@file@percent }
\@writefile{toc}{\contentsline {subsection}{\numberline {2.2}Solusi}{2}\protected@file@percent }
\@writefile{toc}{\contentsline {section}{\numberline {3}Memodernisasi Formulir Oracle}{2}\protected@file@percent }
\@writefile{toc}{\contentsline {subsection}{\numberline {3.1}Fitur}{2}\protected@file@percent }
\@writefile{toc}{\contentsline {subsection}{\numberline {3.2}Solusi}{2}\protected@file@percent }
\@writefile{toc}{\contentsline {section}{\numberline {4}Bangun Aplikasi Besar, Skala Perusahaan}{2}\protected@file@percent }
\@writefile{toc}{\contentsline {subsection}{\numberline {4.1}Fitur}{2}\protected@file@percent }
\@writefile{toc}{\contentsline {subsection}{\numberline {4.2}Solusi}{2}\protected@file@percent }
\@writefile{toc}{\contentsline {section}{\numberline {5}Fitur Tanpa Biaya dari Database Oracle}{3}\protected@file@percent }
\@writefile{toc}{\contentsline {subsection}{\numberline {5.1}Fitur Didukung Penuh tanpa Biaya}{3}\protected@file@percent }
\@writefile{toc}{\contentsline {subsection}{\numberline {5.2}Termasuk dengan Layanan Oracle Cloud}{3}\protected@file@percent }
\@writefile{toc}{\contentsline {subsection}{\numberline {5.3}Mudah dipasang}{3}\protected@file@percent }
\@writefile{toc}{\contentsline {section}{\numberline {6}Berkembang dengan Cepat, Menyesuaikan, dan Memberikan}{3}\protected@file@percent }
\@writefile{toc}{\contentsline {section}{\numberline {7}Opsi Pengembangan / penyebaran}{4}\protected@file@percent }
\@writefile{toc}{\contentsline {subsection}{\numberline {7.1}Lokal}{4}\protected@file@percent }
\@writefile{toc}{\contentsline {subsection}{\numberline {7.2}On-Premis}{4}\protected@file@percent }
\@writefile{toc}{\contentsline {subsection}{\numberline {7.3}Cloud}{4}\protected@file@percent }
\@writefile{toc}{\contentsline {subsection}{\numberline {7.4}Mesin Virtual Basis Data Tunggal / Beberapa Ruang Kerja}{4}\protected@file@percent }
\@writefile{toc}{\contentsline {section}{\numberline {8}Community}{4}\protected@file@percent }
\@writefile{toc}{\contentsline {section}{\numberline {9}Oracle APEX untuk Guru}{5}\protected@file@percent }
\@writefile{toc}{\contentsline {section}{\numberline {10}Oracle APEX Kurikulum Gratis}{5}\protected@file@percent }
\@writefile{toc}{\contentsline {section}{\numberline {11}Memperoleh Ruang Kerja}{5}\protected@file@percent }
